id_product,nit,unitary_price
556,629167950-7,0.97
450,596225990-4,0.45
363,246971827-9,0.7
159,838268163-8,0.69
585,763344544-0,0.75
633,903554679-2,0.88
676,319744926-6,0.45
830,596225990-4,0.91
7,532219323-5,0.34
214,532219323-5,0.9
146,596638062-7,0.62
572,596225990-4,0.58
787,226639468-1,0.83
539,938757296-K,0.27
76,669112526-6,0.84
200,524521439-3,0.66
292,620335423-6,0.29
873,663683539-7,0.85
515,126468261-1,0.35
108,319744926-6,0.19
841,802592808-K,0.69
130,246971827-9,0.17
624,987192803-3,0.85
891,669112526-6,0.48
57,076957498-K,0.7
554,319744926-6,0.92
482,984263326-8,0.52
829,042995119-1,0.75
386,984263326-8,0.16
217,620335423-6,0.64
465,431905459-8,0.94
633,102102969-6,0.98
121,596638062-7,0.25
816,899781327-7,0.17
735,199266097-2,0.11
636,726966771-3,0.75
616,824121452-9,0.52
210,984263326-8,0.81
729,845073190-9,0.86
625,599823647-5,0.49
811,532219323-5,0.65
59,102102969-6,0.47
161,620335423-6,0.6
871,612789965-6,0.99
897,431905459-8,0.78
435,968757957-9,0.29
269,596225990-4,0.24
624,076957498-K,0.5
47,126468261-1,0.35
567,081695309-0,0.29
626,246971827-9,0.62
789,145784698-5,0.35
147,763344544-0,0.95
252,838268163-8,0.67
636,266367523-7,0.24
450,081695309-0,0.8
18,930570902-8,0.12
802,183737602-6,0.19
213,102102969-6,0.97
151,000232736-8,0.18
585,726966771-3,0.89
802,596638062-7,0.53
295,903554679-2,0.96
363,963758337-8,0.44
699,763344544-0,0.13
728,000232736-8,0.56
945,899781327-7,1
432,930570902-8,0.57
423,845073190-9,0.18
286,042995119-1,0.13
661,000232736-8,0.15
945,838268163-8,0.8
624,987192803-3,0.52
180,845073190-9,0.19
422,669112526-6,0.79
157,987192803-3,0.76
966,183737602-6,0.95
143,603665334-4,0.46
982,819633180-0,0.14
343,620335423-6,0.82
314,199266097-2,0.14
546,596225990-4,0.24
269,145784698-5,0.98
234,824121452-9,0.97
539,042995119-1,0.52
787,842319983-5,0.23
295,663683539-7,0.92
656,968757957-9,0.4
425,731528700-0,0.18
329,000232736-8,0.95
295,081695309-0,0.12
767,845073190-9,0.55
451,663683539-7,0.81
177,524521439-3,0.27
444,081695309-0,0.34
99,199266097-2,0.27
180,845073190-9,0.49
431,669112526-6,0.84
916,576313360-9,0.43
925,824121452-9,0.78
107,903554679-2,0.6
728,838268163-8,0.38
869,000232736-8,0.25
253,226639468-1,0.54
577,824121452-9,0.1
314,620335423-6,0.6
507,532219323-5,0.58
553,102102969-6,0.24
884,042995119-1,0.28
707,612789965-6,0.14
954,763344544-0,0.89
146,731528700-0,0.87
180,700778374-0,0.32
431,266367523-7,0.49
577,963758337-8,0.5
911,000232736-8,0.16
153,319744926-6,0.44
656,000232736-8,0.5
569,845073190-9,0.82
295,984263326-8,0.23
180,669112526-6,0.76
949,524521439-3,0.3
133,277498097-6,0.41
625,081695309-0,0.11
282,802592808-K,0.95
528,319744926-6,0.17
99,930570902-8,0.73
801,819633180-0,0.21
261,763344544-0,0.6
76,183737602-6,0.51
408,041377704-9,0.95
243,532219323-5,0.23
407,659352245-7,0.98
472,987192803-3,0.1
716,612789965-6,0.18
45,819633180-0,0.68
161,838268163-8,0.33
255,669112526-6,0.47
266,319744926-6,0.18
62,596638062-7,0.81
813,838268163-8,0.45
126,903554679-2,0.97
577,183737602-6,0.75
133,126468261-1,0.7
358,763344544-0,0.59
787,596638062-7,0.76
945,145784698-5,0.84
954,838268163-8,0.94
367,226639468-1,0.66
234,763344544-0,0.79
76,659352245-7,0.5
781,802592808-K,0.78
292,663683539-7,0.92
561,935106533-2,0.81
635,700778374-0,0.85
267,845073190-9,0.39
604,183737602-6,0.56
408,183737602-6,0.75
216,968757957-9,0.84
175,731528700-0,0.49
46,845073190-9,0.74
159,620335423-6,0.36
185,532219323-5,0.99
583,700778374-0,0.36
225,603665334-4,0.25
200,612789965-6,0.72
585,930570902-8,0.98
252,000232736-8,0.96
251,319744926-6,0.38
435,819633180-0,0.43
75,763344544-0,0.87
343,838268163-8,0.29
785,938757296-K,0.3
597,726966771-3,0.47
633,963758337-8,0.73
210,612789965-6,0.87
906,145784698-5,0.66
785,532219323-5,0.79
717,296987115-7,0.23
579,596638062-7,0.7
175,963758337-8,0.61
166,903554679-2,0.99
707,731528700-0,0.9
133,603665334-4,0.4
143,612789965-6,0.26
539,076957498-K,0.15
813,246971827-9,0.36
170,968757957-9,0.48
7,802592808-K,0.35
687,319744926-6,0.16
78,669112526-6,0.64
45,938757296-K,0.46
242,987192803-3,0.28
159,838268163-8,0.9
553,042995119-1,0.71
404,629167950-7,0.62
472,246971827-9,0.96
905,145784698-5,0.26
425,266367523-7,0.28
945,041377704-9,0.21
735,842319983-5,0.21
579,576313360-9,0.24
399,938757296-K,0.11
626,226639468-1,0.82
7,599823647-5,0.11
546,819633180-0,0.44
147,226639468-1,0.29
594,183737602-6,0.18
594,930570902-8,0.26
945,145784698-5,0.95
121,767738005-0,0.89
725,620335423-6,0.2
554,824121452-9,0.49
200,629167950-7,0.45
329,599823647-5,0.27
76,845073190-9,0.15
971,838268163-8,0.49
349,899781327-7,0.22
916,629167950-7,0.91
34,126468261-1,0.67
472,845073190-9,0.52
546,629167950-7,0.91
967,669112526-6,0.29
633,663683539-7,0.68
407,700778374-0,0.95
126,845073190-9,0.65
165,726966771-3,0.59
322,700778374-0,0.13
571,984263326-8,0.1
729,930570902-8,0.79
7,246971827-9,0.43
869,532219323-5,0.97
715,938757296-K,0.46
59,612789965-6,0.33
515,246971827-9,0.22
891,277498097-6,0.44
367,081695309-0,0.13
130,700778374-0,0.27
891,845073190-9,0.65
825,042995119-1,0.36
151,532219323-5,0.13
820,599823647-5,0.63
842,629167950-7,0.76
825,042995119-1,0.11
886,431905459-8,0.12
633,296987115-7,0.62
216,731528700-0,0.98
841,802592808-K,0.59
684,767738005-0,0.36
945,845073190-9,0.93
732,000232736-8,0.49
886,659352245-7,0.99
200,599823647-5,0.99
507,042995119-1,0.16
624,819633180-0,0.38
451,524521439-3,0.32
841,620335423-6,0.44
575,266367523-7,0.33
295,596638062-7,1
133,319744926-6,0.67
738,199266097-2,0.34
738,145784698-5,0.24
729,802592808-K,0.33
227,126468261-1,0.71
911,731528700-0,0.83
616,838268163-8,0.52
84,126468261-1,0.76
119,199266097-2,0.75
165,935106533-2,0.24
830,612789965-6,0.97
990,000232736-8,0.24
594,731528700-0,0.94
556,930570902-8,0.21
422,930570902-8,0.47
737,266367523-7,0.28
732,763344544-0,0.65
252,246971827-9,0.64
717,277498097-6,0.21
242,524521439-3,0.99
725,596225990-4,0.3
108,524521439-3,0.75
251,935106533-2,0.4
145,767738005-0,0.62
899,042995119-1,0.9
57,629167950-7,0.73
702,199266097-2,0.82
130,663683539-7,0.29
147,987192803-3,0.21
676,669112526-6,0.61
450,903554679-2,0.41
554,145784698-5,0.74
126,599823647-5,0.81
528,246971827-9,0.43
825,824121452-9,0.86
661,599823647-5,0.52
175,763344544-0,0.98
738,532219323-5,0.67
34,000232736-8,0.33
266,629167950-7,0.92
64,669112526-6,0.15
844,819633180-0,0.51
177,763344544-0,0.33
210,968757957-9,0.34
299,296987115-7,0.73
633,603665334-4,0.42
572,842319983-5,0.85
322,319744926-6,0.32
841,819633180-0,0.81
102,620335423-6,0.32
842,659352245-7,0.13
802,838268163-8,0.63
787,524521439-3,0.42
281,183737602-6,0.49
115,824121452-9,0.24
226,612789965-6,0.48
723,763344544-0,0.51
432,266367523-7,0.35
561,700778374-0,0.85
26,663683539-7,0.46
676,963758337-8,0.27
897,842319983-5,0.27
216,700778374-0,0.81
533,296987115-7,0.84
177,076957498-K,0.59
156,596225990-4,0.73
399,296987115-7,0.34
292,938757296-K,0.32
945,042995119-1,0.73
329,763344544-0,0.22
687,226639468-1,0.49
380,842319983-5,1
623,935106533-2,0.17
68,669112526-6,0.87
820,984263326-8,0.91
185,669112526-6,0.77
62,663683539-7,0.65
433,824121452-9,0.76
687,767738005-0,0.27
871,041377704-9,0.71
482,081695309-0,0.52
676,612789965-6,0.8
905,663683539-7,0.5
115,731528700-0,0.46
745,524521439-3,0.43
899,000232736-8,0.69
399,938757296-K,0.31
825,041377704-9,0.54
45,659352245-7,0.51
84,081695309-0,0.69
830,042995119-1,0.77
189,938757296-K,0.88
385,731528700-0,0.4
982,802592808-K,0.75
567,984263326-8,0.88
266,102102969-6,0.24
282,726966771-3,0.12
469,126468261-1,0.94
214,968757957-9,0.78
886,935106533-2,0.24
635,041377704-9,0.14
707,669112526-6,0.52
687,963758337-8,0.31
873,145784698-5,0.45
684,903554679-2,0.71
70,431905459-8,0.5
798,700778374-0,0.14
349,700778374-0,0.96
561,819633180-0,0.23
58,984263326-8,0.83
735,819633180-0,0.52
714,903554679-2,0.54
729,903554679-2,0.3
266,596225990-4,0.65
444,145784698-5,0.37
905,576313360-9,0.51
633,819633180-0,0.26
906,524521439-3,0.37
322,145784698-5,0.26
528,731528700-0,0.42
841,042995119-1,0.28
329,731528700-0,0.93
911,767738005-0,0.98
546,620335423-6,0.86
210,183737602-6,0.16
515,296987115-7,0.49
276,968757957-9,0.66
45,431905459-8,0.43
45,845073190-9,0.96
64,824121452-9,0.44
729,226639468-1,0.8
579,042995119-1,0.6
687,620335423-6,0.27
45,726966771-3,0.74
70,226639468-1,0.24
916,938757296-K,0.5
600,663683539-7,0.16
548,603665334-4,0.24
465,903554679-2,0.71
255,903554679-2,0.66
802,277498097-6,0.13
175,819633180-0,0.76
241,726966771-3,0.92
897,596638062-7,0.46
579,000232736-8,0.74
99,963758337-8,0.42
76,576313360-9,0.65
143,726966771-3,0.68
676,102102969-6,0.79
723,659352245-7,0.91
717,524521439-3,0.85
492,076957498-K,0.21
569,767738005-0,0.51
276,532219323-5,0.37
216,726966771-3,0.1
873,431905459-8,0.78
539,266367523-7,0.27
813,987192803-3,0.72
548,669112526-6,0.41
656,431905459-8,0.45
206,000232736-8,0.2
556,296987115-7,0.93
343,596638062-7,0.95
343,968757957-9,0.52
661,824121452-9,0.87
626,524521439-3,0.47
261,277498097-6,0.2
945,319744926-6,0.54
925,596638062-7,0.8
253,599823647-5,0.14
47,935106533-2,0.62
631,963758337-8,0.31
108,663683539-7,0.72
745,081695309-0,0.2
161,669112526-6,0.73
243,938757296-K,0.9
891,845073190-9,0.93
583,938757296-K,0.53
469,277498097-6,0.62
554,629167950-7,0.3
329,596225990-4,0.37
175,659352245-7,0.3
210,199266097-2,0.16
343,935106533-2,0.75
801,524521439-3,0.54
556,763344544-0,0.2
292,183737602-6,0.89
314,731528700-0,0.93
825,726966771-3,0.71
600,629167950-7,0.46
728,903554679-2,0.91
118,824121452-9,0.17
423,076957498-K,0.21
284,596225990-4,0.62
925,599823647-5,0.34
792,987192803-3,0.4
597,845073190-9,0.67
583,266367523-7,0.45
122,612789965-6,0.76
46,938757296-K,0.42
225,938757296-K,0.19
322,431905459-8,0.69
585,042995119-1,0.48
829,277498097-6,0.38
185,296987115-7,0.84
284,145784698-5,0.29
57,838268163-8,0.61
966,767738005-0,0.94
813,199266097-2,0.98
569,000232736-8,0.57
841,596638062-7,0.57
798,700778374-0,0.89
253,987192803-3,0.6
553,935106533-2,0.87
945,824121452-9,0.66
465,226639468-1,0.76
829,935106533-2,0.25
225,726966771-3,0.4
243,576313360-9,0.34
261,126468261-1,0.4
737,532219323-5,0.94
836,819633180-0,0.93
841,183737602-6,0.91
108,000232736-8,0.93
118,532219323-5,0.95
897,596225990-4,0.75
255,000232736-8,0.29
78,199266097-2,0.33
118,899781327-7,0.93
472,612789965-6,0.56
133,629167950-7,0.79
161,700778374-0,0.92
869,081695309-0,0.81
785,596638062-7,0.72
598,659352245-7,0.76
368,669112526-6,0.5
78,700778374-0,0.32
636,802592808-K,0.95
261,599823647-5,0.89
598,076957498-K,0.68
26,930570902-8,0.16
577,845073190-9,0.73
225,899781327-7,0.16
515,266367523-7,0.26
729,524521439-3,0.98
153,968757957-9,0.54
624,802592808-K,0.95
635,984263326-8,0.59
911,145784698-5,0.86
830,824121452-9,0.35
594,266367523-7,0.19
444,612789965-6,0.33
210,726966771-3,0.71
185,984263326-8,0.15
122,532219323-5,0.44
210,669112526-6,0.59
122,183737602-6,0.48
789,963758337-8,0.18
422,968757957-9,0.14
175,963758337-8,0.55
556,935106533-2,0.88
314,935106533-2,0.19
118,842319983-5,0.98
801,532219323-5,0.29
820,612789965-6,0.19
75,930570902-8,0.96
157,596225990-4,0.31
282,669112526-6,0.11
515,277498097-6,0.19
64,612789965-6,0.12
811,041377704-9,0.87
916,903554679-2,0.81
133,296987115-7,0.99
971,930570902-8,0.42
955,663683539-7,0.4
990,824121452-9,0.57
57,731528700-0,0.67
234,629167950-7,0.59
130,042995119-1,0.35
433,842319983-5,0.59
366,076957498-K,0.72
571,935106533-2,0.87
386,767738005-0,0.59
133,963758337-8,0.93
716,041377704-9,0.99
75,930570902-8,0.93
767,145784698-5,0.8
206,266367523-7,0.59
796,599823647-5,0.42
745,081695309-0,0.41
729,603665334-4,0.98
971,576313360-9,0.93
725,899781327-7,0.97
59,845073190-9,0.63
118,081695309-0,0.55
112,984263326-8,0.23
380,296987115-7,0.62
597,763344544-0,0.83
891,532219323-5,0.98
569,596225990-4,0.73
472,984263326-8,0.85
785,963758337-8,0.74
214,629167950-7,0.31
26,199266097-2,0.57
243,524521439-3,0.49
122,145784698-5,0.91
46,845073190-9,0.89
47,000232736-8,0.61
251,899781327-7,0.3
64,599823647-5,0.83
580,532219323-5,0.72
166,824121452-9,0.4
729,183737602-6,0.19
597,126468261-1,0.37
423,596638062-7,0.92
386,763344544-0,0.32
329,935106533-2,0.17
241,824121452-9,0.54
153,199266097-2,0.18
380,935106533-2,0.83
499,145784698-5,0.12
47,842319983-5,0.56
906,842319983-5,0.43
492,968757957-9,0.63
572,102102969-6,0.63
971,763344544-0,0.45
175,145784698-5,0.65
226,899781327-7,0.26
107,838268163-8,0.17
492,266367523-7,0.78
600,266367523-7,0.39
820,596638062-7,0.81
616,935106533-2,0.96
404,296987115-7,0.76
571,726966771-3,0.13
595,968757957-9,0.12
616,669112526-6,0.47
617,246971827-9,0.21
616,659352245-7,0.69
825,277498097-6,0.44
396,824121452-9,0.48
844,000232736-8,0.79
787,763344544-0,0.65
955,603665334-4,0.41
217,599823647-5,0.44
358,102102969-6,0.34
716,767738005-0,0.68
925,842319983-5,0.82
47,987192803-3,0.68
533,266367523-7,0.77
292,987192803-3,0.95
309,266367523-7,0.94
330,930570902-8,0.38
214,963758337-8,0.1
118,277498097-6,0.66
781,903554679-2,0.8
243,663683539-7,1
717,081695309-0,0.87
269,984263326-8,0.57
241,277498097-6,0.41
707,669112526-6,0.58
153,819633180-0,0.64
78,126468261-1,0.99
871,987192803-3,0.39
343,603665334-4,0.2
884,226639468-1,0.8
309,819633180-0,0.87
802,266367523-7,0.41
767,663683539-7,0.56
676,603665334-4,0.85
284,726966771-3,1
813,277498097-6,0.28
243,126468261-1,0.94
801,431905459-8,0.93
26,042995119-1,0.66
156,845073190-9,0.64
143,226639468-1,0.96
174,277498097-6,0.32
561,042995119-1,0.75
829,731528700-0,0.71
404,987192803-3,0.25
226,845073190-9,0.99
444,935106533-2,0.81
241,731528700-0,0.14
594,599823647-5,0.24
899,984263326-8,0.45
269,938757296-K,0.97
147,935106533-2,0.61
623,599823647-5,0.55
433,266367523-7,0.1
499,767738005-0,0.98
633,599823647-5,0.38
884,246971827-9,0.98
990,599823647-5,0.21
687,669112526-6,0.21
825,663683539-7,0.74
802,726966771-3,0.54
785,183737602-6,0.27
725,824121452-9,0.19
813,899781327-7,0.41
699,659352245-7,0.95
811,612789965-6,0.27
525,296987115-7,0.67
575,199266097-2,0.93
567,763344544-0,0.35
624,659352245-7,0.8
829,041377704-9,0.62
553,102102969-6,0.33
18,226639468-1,0.93
595,000232736-8,0.81
577,603665334-4,0.85
194,603665334-4,0.75
955,000232736-8,0.79
716,603665334-4,0.27
998,042995119-1,0.37
971,041377704-9,0.78
816,266367523-7,0.57
234,596638062-7,0.32
841,819633180-0,0.57
363,319744926-6,0.98
575,576313360-9,0.26
676,532219323-5,0.42
897,984263326-8,0.67
185,659352245-7,0.49
702,842319983-5,0.18
594,596638062-7,0.65
569,183737602-6,0.29
789,763344544-0,0.83
844,076957498-K,0.91
661,838268163-8,0.1
594,845073190-9,0.19
577,042995119-1,0.87
7,845073190-9,0.18
598,963758337-8,0.67
745,226639468-1,0.38
729,246971827-9,0.36
292,319744926-6,0.73
433,819633180-0,0.73
385,599823647-5,0.38
499,899781327-7,0.76
884,767738005-0,0.25
598,930570902-8,0.54
170,319744926-6,0.53
146,296987115-7,0.12
499,968757957-9,0.6
366,076957498-K,0.89
102,903554679-2,0.69
399,596225990-4,0.48
717,277498097-6,0.69
269,819633180-0,0.78
216,532219323-5,0.39
385,899781327-7,0.48
84,838268163-8,0.68
166,968757957-9,0.25
315,041377704-9,0.49
133,620335423-6,0.43
425,899781327-7,0.64
906,824121452-9,0.42
834,041377704-9,0.6
432,266367523-7,0.9
585,938757296-K,0.89
330,431905459-8,0.81
180,763344544-0,0.36
971,963758337-8,0.43
745,532219323-5,0.55
844,659352245-7,0.64
624,842319983-5,0.52
729,431905459-8,0.31
715,296987115-7,0.4
798,000232736-8,0.87
282,226639468-1,0.51
408,076957498-K,0.87
548,576313360-9,0.99
161,963758337-8,0.94
7,102102969-6,0.39
617,041377704-9,0.41
267,845073190-9,0.15
118,145784698-5,0.2
315,726966771-3,0.18
676,767738005-0,0.68
214,903554679-2,0.39
684,726966771-3,0.6
175,076957498-K,0.2
18,183737602-6,0.82
175,819633180-0,0.2
636,042995119-1,0.67
396,838268163-8,0.21
548,842319983-5,0.83
572,524521439-3,0.92
597,524521439-3,0.49
444,524521439-3,0.62
322,183737602-6,0.81
380,296987115-7,0.73
676,576313360-9,0.63
796,838268163-8,0.79
243,968757957-9,0.5
62,620335423-6,0.39
548,145784698-5,0.92
738,596225990-4,0.75
528,963758337-8,0.47
122,903554679-2,0.69
367,596225990-4,0.26
261,599823647-5,0.84
281,199266097-2,0.96
548,041377704-9,0.42
242,431905459-8,0.99
296,845073190-9,0.42
585,620335423-6,0.11
151,126468261-1,0.67
656,076957498-K,0.59
841,183737602-6,0.59
595,126468261-1,0.62
276,763344544-0,0.56
130,431905459-8,0.63
707,199266097-2,0.11
444,987192803-3,0.43
781,968757957-9,0.44
533,984263326-8,0.31
206,041377704-9,0.71
177,824121452-9,0.75
210,845073190-9,0.65
884,296987115-7,0.29
189,899781327-7,0.54
829,620335423-6,0.29
524,319744926-6,0.67
407,935106533-2,0.71
322,700778374-0,0.17
153,629167950-7,0.21
206,963758337-8,0.56
385,199266097-2,0.5
431,968757957-9,0.71
906,669112526-6,0.44
792,903554679-2,0.55
873,802592808-K,0.67
472,183737602-6,0.2
157,524521439-3,0.5
617,319744926-6,0.53
435,183737602-6,0.46
787,659352245-7,0.8
57,596638062-7,0.94
546,726966771-3,0.5
825,629167950-7,0.42
64,659352245-7,0.72
314,763344544-0,0.79
580,669112526-6,0.69
145,935106533-2,0.4
57,824121452-9,0.73
366,532219323-5,0.27
911,845073190-9,0.24
58,842319983-5,0.85
170,596225990-4,0.92
625,731528700-0,0.9
64,659352245-7,0.31
571,819633180-0,0.49
623,532219323-5,0.89
844,930570902-8,0.46
873,612789965-6,0.3
967,824121452-9,0.27
616,987192803-3,0.94
315,277498097-6,0.33
243,277498097-6,0.15
267,930570902-8,0.63
781,767738005-0,0.94
579,984263326-8,0.96
451,663683539-7,0.65
616,824121452-9,0.94
891,930570902-8,0.84
569,731528700-0,0.68
46,968757957-9,0.12
161,824121452-9,0.45
955,802592808-K,0.15
295,968757957-9,0.13
226,819633180-0,0.17
217,659352245-7,0.51
62,845073190-9,0.4
68,524521439-3,0.2
873,935106533-2,0.22
580,277498097-6,0.18
594,987192803-3,0.44
165,102102969-6,0.74
827,842319983-5,0.3
276,612789965-6,0.77
433,000232736-8,0.77
200,612789965-6,0.42
735,802592808-K,0.67
699,938757296-K,0.58
626,987192803-3,0.51
579,968757957-9,0.7
145,842319983-5,0.75
133,845073190-9,0.62
553,629167950-7,0.39
130,126468261-1,0.64
349,041377704-9,0.69
99,726966771-3,0.57
253,963758337-8,0.22
242,081695309-0,0.81
569,266367523-7,0.66
735,838268163-8,0.77
717,226639468-1,0.88
170,041377704-9,0.54
579,899781327-7,0.67
64,576313360-9,0.83
296,596638062-7,0.85
897,845073190-9,0.78
827,596225990-4,0.12
916,935106533-2,0.78
830,576313360-9,0.92
789,000232736-8,0.85
871,183737602-6,0.56
45,532219323-5,0.72
45,984263326-8,0.89
630,767738005-0,0.79
18,620335423-6,0.11
792,845073190-9,0.89
261,819633180-0,0.24
177,596225990-4,0.11
435,183737602-6,0.82
349,296987115-7,0.63
64,987192803-3,0.91
572,000232736-8,0.35
425,726966771-3,0.99
396,930570902-8,0.46
115,767738005-0,0.27
450,903554679-2,0.18
844,935106533-2,0.26
121,629167950-7,0.7
482,126468261-1,0.59
666,669112526-6,0.47
884,938757296-K,0.82
825,700778374-0,0.71
825,081695309-0,0.58
145,838268163-8,0.16
656,145784698-5,0.82
625,663683539-7,0.43
801,319744926-6,0.87
802,226639468-1,0.12
990,930570902-8,0.32
252,431905459-8,0.4
836,042995119-1,0.62
636,266367523-7,0.82
309,963758337-8,0.71
906,576313360-9,0.57
967,763344544-0,0.11
200,277498097-6,0.57
269,903554679-2,0.53
595,903554679-2,0.55
225,842319983-5,0.77
482,081695309-0,0.47
735,319744926-6,0.56
309,199266097-2,0.91
841,987192803-3,0.2
170,596638062-7,0.9
284,663683539-7,0.24
343,041377704-9,0.44
433,296987115-7,0.97
554,802592808-K,0.31
102,102102969-6,0.34
472,102102969-6,0.54
295,076957498-K,0.48
284,802592808-K,0.39
404,296987115-7,0.2
180,620335423-6,0.46
841,296987115-7,0.78
322,081695309-0,0.92
729,938757296-K,0.63
556,968757957-9,0.14
966,277498097-6,0.37
58,596638062-7,0.28
687,903554679-2,0.17
886,532219323-5,0.22
143,938757296-K,0.26
281,532219323-5,0.44
715,102102969-6,0.17
286,596225990-4,0.24
801,000232736-8,0.21
633,935106533-2,0.17
492,838268163-8,0.35
214,930570902-8,0.33
954,845073190-9,0.46
156,842319983-5,0.47
210,041377704-9,0.52
261,838268163-8,0.52
58,199266097-2,0.74
217,620335423-6,0.5
251,984263326-8,0.8
433,984263326-8,0.56
728,041377704-9,0.85
157,000232736-8,0.47
737,938757296-K,0.42
422,599823647-5,0.64
242,930570902-8,0.47
729,838268163-8,0.58
407,183737602-6,0.6
579,767738005-0,0.38
18,000232736-8,0.13
450,968757957-9,0.61
349,596225990-4,0.64
571,819633180-0,0.68
385,938757296-K,0.25
64,199266097-2,0.45
255,968757957-9,0.41
450,524521439-3,0.51
728,431905459-8,0.43
366,042995119-1,0.26
714,824121452-9,0.33
59,938757296-K,0.77
661,767738005-0,0.88
723,763344544-0,0.82
76,767738005-0,0.13
214,659352245-7,0.63
702,899781327-7,0.74
185,524521439-3,0.84
625,226639468-1,0.18
666,903554679-2,0.69
126,659352245-7,0.47
126,968757957-9,0.5
507,041377704-9,0.71
583,199266097-2,0.95
269,930570902-8,0.72
714,246971827-9,0.47
820,226639468-1,0.43
811,596638062-7,0.34
216,576313360-9,0.25
624,930570902-8,0.36
789,767738005-0,0.12
68,838268163-8,0.83
539,620335423-6,0.59
656,819633180-0,0.33
585,603665334-4,0.11
422,824121452-9,0.5
423,183737602-6,0.46
194,000232736-8,0.75
715,659352245-7,0.16
869,612789965-6,0.79
180,620335423-6,0.35
157,102102969-6,0.66
386,968757957-9,0.54
329,968757957-9,0.97
7,620335423-6,0.36
284,819633180-0,0.95
630,226639468-1,0.41
